Tibbles
…
## -- Attaching packages --------------------------------------- tidyverse 1.2.1 --

## v ggplot2 3.0.0     v purrr   0.2.5
## v tibble  1.4.2     v dplyr   0.7.6
## v tidyr   0.8.1     v stringr 1.3.1
## v readr   1.1.1     v forcats 0.3.0

## -- Conflicts ------------------------------------------ tidyverse_conflicts() --
## x dplyr::filter() masks stats::filter()
## x dplyr::lag()    masks stats::lag()

as_tibble(iris)

## # A tibble: 150 x 5
##    Sepal.Length Sepal.Width Petal.Length Petal.Width Species
##           <dbl>       <dbl>        <dbl>       <dbl> <fct>  
##  1          5.1         3.5          1.4         0.2 setosa 
##  2          4.9         3            1.4         0.2 setosa 
##  3          4.7         3.2          1.3         0.2 setosa 
##  4          4.6         3.1          1.5         0.2 setosa 
##  5          5           3.6          1.4         0.2 setosa 
##  6          5.4         3.9          1.7         0.4 setosa 
##  7          4.6         3.4          1.4         0.3 setosa 
##  8          5           3.4          1.5         0.2 setosa 
##  9          4.4         2.9          1.4         0.2 setosa 
## 10          4.9         3.1          1.5         0.1 setosa 
## # ... with 140 more rows
…
The two main differences between data.frames and tibbles are the way in which these objects print and how data can be subsetted within these structures.

Printing

As opposed to a dataframe, a tibble prints the first ten rows of the set, shows data types and also shows the name of the tibble. It also gives a row count which is really helpful when working with big data sets. Here is an example that incorporates dates from lubridate, a package we will get to later.

tibble(                                        # Some extra comments
  a = lubridate::now() + runif(1e3) * 86400,   # lubrudate::now() gives a timestamp of right now; 1e3 for some reason calculates 1000
  b = lubridate::today() + runif(1e3) * 30,    # lubridate::today() gives today's date; runi() yields a uniform distribution based on an input parameter. 
  c = 1:1e3,
  d = runif(1e3),
  e = sample(letters, 1e3, replace = TRUE)     # letters yields a vector of lower case letters of the alphabet, sample() is a base function that samples rows from a vector
)

## # A tibble: 1,000 x 5
##    a                   b              c       d e    
##    <dttm>              <date>     <int>   <dbl> <chr>
##  1 2018-11-20 17:15:11 2018-12-07     1 0.469   p    
##  2 2018-11-20 19:33:40 2018-12-03     2 0.305   y    
##  3 2018-11-20 17:31:52 2018-12-08     3 0.959   u    
##  4 2018-11-20 18:26:48 2018-12-10     4 0.0589  d    
##  5 2018-11-21 08:45:25 2018-11-22     5 0.128   e    
##  6 2018-11-21 01:53:26 2018-12-16     6 0.00131 i    
##  7 2018-11-20 12:59:51 2018-12-03     7 0.387   g    
##  8 2018-11-21 07:44:10 2018-11-20     8 0.276   s    
##  9 2018-11-20 22:55:31 2018-11-27     9 0.0848  g    
## 10 2018-11-21 04:51:47 2018-12-16    10 0.303   c    
## # ... with 990 more rows
…
